{"photos":{"page":1,"pages":78831,"perpage":6,"total":"472984","photo":[{"id":"21981969502","owner":"17087047@N00","secret":"b757b3be26","server":"5748","farm":6,"title":"Grave of Apollo 1 astronaut Roger Chaffee, Arlington National Cemetery","ispublic":1,"isfriend":0,"isfamily":0},{"id":"21981962172","owner":"17087047@N00","secret":"1d03cb8bef","server":"779","farm":1,"title":"Grave of Apollo 1 astronaut Gus Grissom, Arlington National Cemetery","ispublic":1,"isfriend":0,"isfamily":0},{"id":"21997041631","owner":"41284017@N08","secret":"a36001336a","server":"706","farm":1,"title":"20151005-OSEC-LSC-0095","ispublic":1,"isfriend":0,"isfamily":0},{"id":"21961040216","owner":"41284017@N08","secret":"1e62db6958","server":"5807","farm":6,"title":"20151005-OSEC-LSC-0096","ispublic":1,"isfriend":0,"isfamily":0},{"id":"21975019672","owner":"41284017@N08","secret":"d87e4d97c4","server":"749","farm":1,"title":"20151005-OSEC-LSC-0126","ispublic":1,"isfriend":0,"isfamily":0},{"id":"21364431364","owner":"41284017@N08","secret":"edff04004c","server":"627","farm":1,"title":"20151005-OSEC-LSC-0131","ispublic":1,"isfriend":0,"isfamily":0}]},"stat":"ok"}