{
    "photos": {
        "page": 1,
        "pages": 27167,
        "perpage": 6,
        "total": "163000",
        "photo": [
            {
                "id": "49431730361",
                "owner": "10185705@N04",
                "secret": "937776f8a3",
                "server": "65535",
                "farm": 66,
                "title": "Gracie 21 January 2020 4646-47",
                "ispublic": 1,
                "isfriend": 0,
                "isfamily": 0
            },
            {
                "id": "49431719681",
                "owner": "10185705@N04",
                "secret": "bf417e447c",
                "server": "65535",
                "farm": 66,
                "title": "Millie 20 January 2020 4639Ri 4x6",
                "ispublic": 1,
                "isfriend": 0,
                "isfamily": 0
            },
            {
                "id": "49431718741",
                "owner": "10185705@N04",
                "secret": "2a546b9116",
                "server": "65535",
                "farm": 66,
                "title": "Millie 21 January 2020 4651Ri 9x16",
                "ispublic": 1,
                "isfriend": 0,
                "isfamily": 0
            },
            {
                "id": "49431340852",
                "owner": "184307436@N07",
                "secret": "f1ac763448",
                "server": "65535",
                "farm": 66,
                "title": "Kitties gone wild!",
                "ispublic": 1,
                "isfriend": 0,
                "isfamily": 0
            },
            {
                "id": "49421707808",
                "owner": "13757887@N00",
                "secret": "4b1e19285a",
                "server": "65535",
                "farm": 66,
                "title": "Merry Catmas",
                "ispublic": 1,
                "isfriend": 0,
                "isfamily": 0
            },
            {
                "id": "49421566911",
                "owner": "12082985@N00",
                "secret": "2a13e86c2f",
                "server": "65535",
                "farm": 66,
                "title": "IMG_0372",
                "ispublic": 1,
                "isfriend": 0,
                "isfamily": 0
            }
        ]
    },
    "stat": "ok"
}